[
  {
    "normalForm": "c'hoari",
    "id": 1,
    "translations": "to play"
  },
  {
    "normalForm": "choaz",
    "id": 2,
    "translations": "to choose",
    "synonyms": [ 6, 8, 10 ]
  },
  {
    "normalForm": "chom",
    "id": 3,
    "translations": "to stay"
  }
]