[
  {
    "normalForm": "debriñ",
    "id": 100051,
    "translations": [ "to eat" ],
    "troponyms": [ 100052, 100053 ]
  },
  {
    "normalForm": "deskiñ",
    "id": 4,
    "translations": "to learn",
    "versions": "deskein"
  },
  {
    "normalForm": "deviñ",
    "id": 5,
    "translations": "to burn"
  },
  {
    "normalForm": "dibab",
    "id": 6,
    "translations": "to choose",
    "synonyms": [ 2, 8, 10 ]
  },
  {
    "normalForm": "digeriñ",
    "id": 7,
    "translations": "to open"
  },
  {
    "normalForm": "dilenn",
    "id": 8,
    "translations": "to choose",
    "synonyms": [ 2, 6, 10 ]
  },
  {
    "normalForm": "dilestrañ",
    "id": 9,
    "translations": "to disembark"
  },
  {
    "normalForm": "diluz",
    "id": 10,
    "translations": "to choose",
    "synonyms": [ 2, 6, 8 ]
  },
  {
    "normalForm": "dont",
    "id": 11,
    "translations": "to come",
    "versions": "doned",
    "stem": "deu"
  },
  {
    "normalForm": "doujañ",
    "id": 12,
    "translations": "to respect"
  }
]