[
  {
    "normalForm": "gallout",
    "id": 15,
    "translations": [ "can", "to be able to" ],
    "versions": 16
  },
  {
    "normalForm": "gellout",
    "id": 16,
    "translations": [ "can", "to be able to" ],
    "versions": 15
  },
  {
    "normalForm": "gouzout",
    "id": 100007,
    "translations": [ "to know:1" ],
    "present": {
      "stem": "ouz",
      "singThird": "oar"
    },
    "imperfect": {
      "stem": "oui"
    },
    "preterite": {
      "stem": "goue",
      "singFirst": "gouezis",
      "singThird": "gouezas"
    },
    "future": {
      "stem": "gouez"
    },
    "conditional_present": {
      "stem": "ou"
    },
    "conditional_imperfect": {
      "stem": "oui"
    },
    "imperative": {
      "stem": "gouez"
    }
  },
  {
    "normalForm": "gwelet",
    "id": 17,
    "translations": "to hear",
    "versions": "gwelout"
  },
  {
    "normalForm": "gwerzhañ",
    "id": 18,
    "translations": "to sell",
    "antonyms": 19
  },
  {
    "normalForm": "gwilc'hañ",
    "id": 20,
    "translations": [ "to wink", "to ogle" ]
  },
  {
    "normalForm": "gwildronañ",
    "id": 21,
    "translations": "to twist"
  },
  {
    "normalForm": "gwriat",
    "id": 22,
    "translations": "to sew",
    "conjugates": false
  }
]