[
  {
    "normalForm": "kaout",
    "id": 100003,
    "translations": [ "to have:*", "to get" ],
    "present": {
      "singFirst": [ "am eus", "meus" ],
      "singSecond": [ "az peus", "ac'h eus", "teus", "peus" ],
      "singThird": [ "en deus", "neus", "he deus", "neus" ],
      "plurFirst": [ "hon neus", "oneus" ],
      "plurSecond": [ "hoc'h eus", "peus" ],
      "plurThird": [ "o deus", "deus"],
      "impersonal": []
    },
    "present_habitual": {
      "singFirst": [ "am bez", "mez" ],
      "singSecond": [ "az pez", "pez" ],
      "singThird": [ "en devez", "nez", "he devez", "dez" ],
      "plurFirst": [ "hor bez", "obez" ],
      "plurSecond": [ "ho pez", "pez" ],
      "plurThird": [ "o devez", "dez"],
      "impersonal": []
    },
    "future": {
      "singFirst": [ "am bo", "mo", "am vezo" ],
      "singSecond": [ "az po", "to", "az pezo" ],
      "singThird": [ "en do", "no", "en devezo", "he devo", "do", "he devezo" ],
      "plurFirst": [ "hor bo", "obo", "hor bezo" ],
      "plurSecond": [ "ho po", "po", "ho pezo" ],
      "plurThird": [ "o do", "do", "do devezo"],
      "impersonal": []
    },
    "imperfect": {
      "singFirst": [ "am boa", "moa" ],
      "singSecond": [ "az poa", "toa" ],
      "singThird": [ "en doa", "noa", "he doa", "doa" ],
      "plurFirst": [ "hor boa", "oboa" ],
      "plurSecond": [ "ho poa", "poa" ],
      "plurThird": [ "o doa", "doa" ],
      "impersonal": []
    },
    "imperfect_habitual": {
      "singFirst": [ "am boa", "moa" ],
      "singSecond": [ "az poa", "toa" ],
      "singThird": [ "en devoa", "noa", "he devoa", "doa" ],
      "plurFirst": [ "hor boa", "oboa" ],
      "plurSecond": [ "ho poa", "poa" ],
      "plurThird": [ "o devoa", "doa" ],
      "impersonal": []
    },
    "preterite": {
      "singFirst": [ "am boe", "moe" ],
      "singSecond": [ "az poe", "toe" ],
      "singThird": [ "en devoe", "noe", "he devoe", "doe" ],
      "plurFirst": [ "hor boe", "boe" ],
      "plurSecond": [ "ho poe", "poe" ],
      "plurThird": [ "o devoe", "doe" ],
      "impersonal": []
    },
    "conditional_present": {
      "singFirst": [ "am bije", "mije" ],
      "singSecond": [ "az pije", "tije" ],
      "singThird": [ "en devije", "nije", "he devije", "dije" ],
      "plurFirst": [ "hor bije", "obije" ],
      "plurSecond": [ "ho pije", "pije" ],
      "plurThird": [ "o devije", "dije" ],
      "impersonal": []
    },
    "conditional_imperfect": {
      "singFirst": [ "am befe", "mefe" ],
      "singSecond": [ "az pefe", "tefe" ],
      "singThird": [ "en devefe", "nefe", "he devefe", "defe" ],
      "plurFirst": [ "hor befe", "obefe" ],
      "plurSecond": [ "ho pefe", "pefe" ],
      "plurThird": [ "o devefe", "defe" ],
      "impersonal": []
    },
    "imperative": {
      "singFirst": [],
      "singSecond": "az pezet, az pez",
      "singThird": [],
      "plurFirst": "hor bezet",
      "plurSecond": "ho pezet, ho pet",
      "plurThird": [],
      "impersonal": []
    }
  },
  {
    "normalForm": "karout",
    "id": 100026,
    "translations": [ "to love", "to like" ]
  },
  {
    "normalForm": "kanañ",
    "id": 25,
    "translations": "to sing"
  },
  {
    "normalForm": "kaozeal",
    "id": 26,
    "translations": [ "to speak", "to talk" ],
    "stem": "kaoze"
  },
  {
    "normalForm": "kargañ",
    "id": 27,
    "translations": "to load",
    "synonyms": 28
  },

  {
    "normalForm": "kas",
    "id": 29,
    "translations": "to send"
  },
  {
    "normalForm": "kavout",
    "id": 30,
    "translations": [ "to find", "to meet up with" ]
  },
  {
    "normalForm": "kelenn",
    "id": 31,
    "translations": "to teach",
    "related": [ 32 ]
  },
  {
    "normalForm": "kemm",
    "id": 33,
    "translations": "to change"
  },
  {
    "normalForm": "kinnig",
    "id": 34,
    "translations": [ "to offer", "to propose" ]
  },
  {
    "normalForm": "klask",
    "id": 35,
    "translations": [ "to search", "to look for", "to try" ]
  },
  {
    "normalForm": "klevout",
    "id": 36,
    "translations": [ "to hear", "to smell", "to sniff" ]
  },
  {
    "normalForm": "komz",
    "id": 1000,
    "translations": [ "to speak" ]
  },
  {
    "normalForm": "konikleta",
    "id": 37,
    "translations": "to hunt rabbits"
  },
  {
    "normalForm": "korolliñ",
    "id": 38,
    "translations": "to dance"
  },
  {
    "normalForm": "kousket",
    "id": 39,
    "translations": "to sleep"
  },
  {
    "normalForm": "krediñ",
    "id": 40,
    "translations": [ "to think", "to believe" ]
  },
  {
    "normalForm": "kregiñ",
    "id": 41,
    "translations": [ "to start", "to begin" ]
  },
  {
    "normalForm": "krouiñ",
    "id": 42,
    "translations": [ "to create" ]
  }
]