[
  {
    "normalForm": "ober",
    "id": 100000,
    "translations": [ "to do", "to make" ],
    "stem": "gra",
    "present": {
      "singFirst": "ran",
      "singSecond": "rez",
      "singThird": "ra",
      "plurFirst": "reomp",
      "plurSecond": "rit",
      "plurThird": "reont",
      "impersonal": "reer"
    },
    "preterite": {
      "stem": "gre",
      "singFirst": "gris"
    },
    "imperative": {
      "plurFirst": "greomp",
      "plurSecond": "grit"
    },
    "future": {
      "singFirst": "rin",
      "singSecond": "ri",
      "singThird": "raio",
      "plurFirst": "raimp",
      "plurSecond": "reoc'h",
      "plurThird": "raint",
      "impersonal": "reor"
    },
    "conditional_present": {
      "singFirst": "rafen",
      "singSecond": "rafes",
      "singThird": "rafe",
      "plurFirst": "rafemp",
      "plurSecond": "rafec'h",
      "plurThird": "rafent",
      "impersonal": "rafed"
    }
  }
]