[
    {
        "normalForm": "a",
        "id": 100022,
        "inflected": true,
        "singFirst": [ "ac'hanon" ],
        "singSecond": [ "ac'anout" ],
        "singThirdMasc": [ "anezhañ" ],
        "singThirdFem": [ "anezhi" ],
        "plurFirst": [ "ac'hanomp" ],
        "plurSecond": [ "ac'hanoc'h" ],
        "plurThird": [ "anezho" ]
    },
    {
        "normalForm": "da",
        "id": 100023,
        "translations": "to",
        "inflected": true,
        "singFirst": [ "din" ],
        "singSecond": [ "dit" ],
        "singThirdMasc": [ "dezhañ" ],
        "singThirdFem": [ "dezhi" ],
        "plurFirst": [ "deomp", "dimp" ],
        "plurSecond": [ "deoc'h" ],
        "plurThird": [ "dezho" ]
    },
    {
        "normalForm": "dindan",
        "id": 100056,
        "inflected": true,
        "translations": [ "under" ],
        "singFirst": [ "dindanon" ],
        "singSecond": [ "dindanout" ],
        "singThirdMasc": [ "dindanañ" ],
        "singThirdFem": [ "dindani" ],
        "plurFirst": [ "dindanomp" ],
        "plurSecond": [ "dindanoc'h" ],
        "plurThird": [ "dindano" ]
    },
    {
        "normalForm": "e",
        "id": 100060,
        "translations": "in"
    },
    {
        "normalForm": "eget",
        "id": 100061,
        "translations": "than",
        "inflected": true,
        "singFirst": [ "egedon" ],
        "singSecond": [ "egedout" ],
        "singThirdMasc": [ "egetañ" ],
        "singThirdFem": [ "egeti" ],
        "plurFirst": [ "egedomp" ],
        "plurSecond": [ "egedoc'h" ],
        "plurThird": [ "egeto" ]
    },
    {
        "normalForm": "etre",
        "id": 100062,
        "translations": [ "between", "among", "betwixt" ]
    },
    {
        "normalForm": "eus",
        "id": 100063,
        "translations": [ "from" ]
    },
    {
        "normalForm": "evel",
        "id": 100064,
        "translations": [ "as", "like" ],
        "inflected": true,
        "singFirst": [ "evidon" ],
        "singSecond": [ "evidout" ],
        "singThirdMasc": [ "evitañ" ],
        "singThirdFem": [ "eviti" ],
        "plurFirst": [ "evidomp" ],
        "plurSecond": [ "evidoc'h" ],
        "plurThird": [ "evito" ]
    },
    {
        "normalForm": "evit",
        "id": 100065,
        "translations": [ "for" ]
    },
    {
        "normalForm": "gant",
        "id": 100024,
        "translations": "with",
        "inflected": true,
        "singFirst": [ "ganin" ],
        "singSecond": [ "ganit" ],
        "singThirdMasc": [ "gantañ" ],
        "singThirdFem": [ "ganti" ],
        "plurFirst": [ "ganeomp", "ganimp" ],
        "plurSecond": [ "ganeoc'h" ],
        "plurThird": [ "ganto" ],
        "impersonal": "ganeor"
    },
    {
        "normalForm": "ouzh",
        "id": 100025,
        "inflected": true,
        "translations": [ "towards", "to", "against" ],
        "singFirst": [ "ouzhin" ],
        "singSecond": [ "ouzhit" ],
        "singThirdMasc": [ "outañ" ],
        "singThirdFem": [ "outi" ],
        "plurFirst": [ "ouzhomp" ],
        "plurSecond": [ "ouzhoc'h" ],
        "plurThird": [ "outo" ],
        "impersonal": "ouzhor"
    },
    {
        "normalForm": "hep",
        "id": 100049,
        "translations": "without",
        "inflected": true,
        "singFirst": [ "hepdon" ],
        "singSecond": [ "hepdout" ],
        "singThirdMasc": [ "heptañ" ],
        "singThirdFem": [ "hepti" ],
        "plurFirst": [ "hepdomp" ],
        "plurSecond": [ "hepdoc'h" ],
        "plurThird": [ "hepto" ]
    },
    {
        "normalForm": "kén",
        "id": 100054,
        "translations": "until"
    },
    {
        "normalForm": "rak",
        "versions": 100057,
        "id": 100055,
        "translations": "before"
    },
    {
        "normalForm": "rag",
        "versions": 100055,
        "id": 100057,
        "translations": "before"
    },
    {
        "normalForm": "setu",
        "id": 100058,
        "notes": "Similar to the French word 'voilà'",
        "translations": [ "here you are", "here's", "voilà" ]
    },
    {
        "normalForm": "war",
        "id": 100059,
        "translations": [ "on", "over" ],
        "examples": [
            {
                "text": "<strong>war</strong> ar sizhun",
                "trans": "during the week",
                "explanation": ""
            }
        ],
        "inflected": true,
        "singFirst": [ "warnon" ],
        "singSecond": [ "warnout" ],
        "singThirdMasc": [ "warnañ" ],
        "singThirdFem": [ "warni" ],
        "plurFirst": [ "warnomp" ],
        "plurSecond": [ "warnoc'h" ],
        "plurThird": [ "warno" ]
    }
]
